#--------------------------------------------
#            size of the domain             
#--------------------------------------------
xlength		8
ylength		1.7

x_origin    -2.5
y_origin    0.1

#--------------------------------------------
#            number of cells
#--------------------------------------------
imax	    80
jmax		34

#--------------------------------------------
#            domain setup
# 0 - no-slip
# 1 - free-slip
# 2 - outflow
# 3 - inflow
# 4 - coupling
# 6 - fluid
#--------------------------------------------

problem     F2-heat-exchange
geometry    geometries/F2-heat-exchange_82x36.pgm

#--------------------------------------------
#               PRECICE
#--------------------------------------------

precice_config		precice-configs/precice_config_exchange_explicit.xml
participant_name	Fluid2
mesh_name			F2-to-Solid-Mesh
read_data_name		Heat-Flux
write_data_name		Temperature

#--------------------------------------------
#               heat transfer
#--------------------------------------------

TI      6
Pr      0.1
beta    0.00021

#--------------------------------------------
#               time steps
#--------------------------------------------
dt		0.05
t_end	5000.0
tau	 	0.5

#--------------------------------------------
#               output
#--------------------------------------------
dt_value        0.01

#--------------------------------------------
#               pressure
#--------------------------------------------
itermax		500
eps		    0.0001
omg		    1.7
alpha		0.5

#--------------------------------------------
#               reynoldsnumber
#--------------------------------------------
Re		100

#--------------------------------------------
#               gravitation
#--------------------------------------------
GX		0
GY		0

#--------------------------------------------
#         initialization pressure
#--------------------------------------------
PI		0

#--------------------------------------------
#       initialization velocity
#--------------------------------------------
UI		-5
VI		0


